<svg width="20" height="20" viewBox="0 0 20 20" fill="none" xmlns="http://www.w3.org/2000/svg">
<path d="M1.80892 7.72011L1.80895 7.72C2.11212 6.62802 2.62792 5.62404 3.31016 4.75532L3.31017 4.75531C4.86904 2.77031 7.28569 1.5 10 1.5C14.6945 1.5 18.5 5.30545 18.5 10C18.5 14.6945 14.6945 18.5 10 18.5C5.30545 18.5 1.5 14.6945 1.5 10C1.5 9.20809 1.60799 8.44359 1.80892 7.72011Z" fill="#FEC007" stroke="#FF4E4E" stroke-width="3"/>
<path d="M18.7438 10.3286C18.506 10.3286 18.3132 10.1358 18.3132 9.89798C18.3132 5.29734 14.5703 1.55446 9.96965 1.55446C9.73184 1.55446 9.53906 1.36169 9.53906 1.12388C9.53906 0.886075 9.73184 0.693298 9.96965 0.693298C15.0452 0.693298 19.1744 4.82256 19.1744 9.89804C19.1744 10.1358 18.9816 10.3286 18.7438 10.3286Z" fill="#FCE790"/>
<path d="M9.97035 19.1027C4.89488 19.1027 0.765625 14.9734 0.765625 9.89799C0.765625 9.66013 0.9584 9.46741 1.19621 9.46741C1.43401 9.46741 1.62679 9.66018 1.62679 9.89799C1.62679 14.4986 5.36966 18.2415 9.9703 18.2415C10.2081 18.2415 10.4009 18.4343 10.4009 18.6721C10.4009 18.9099 10.2082 19.1027 9.97035 19.1027Z" fill="#FCE790"/>
<path d="M10 17C13.866 17 17 13.866 17 10C17 6.13401 13.866 3 10 3C6.13401 3 3 6.13401 3 10C3 13.866 6.13401 17 10 17Z" fill="#FE9700"/>
<path d="M10 16C13.3137 16 16 13.3137 16 10C16 6.68635 13.3137 4.00006 10 4.00006C6.68629 4.00006 4 6.68635 4 10C4 13.3137 6.68629 16 10 16Z" fill="#FCE790"/>
<path d="M13.2507 7.87944C13.1778 7.79731 13.0729 7.75006 12.9622 7.75006H7.6904L7.616 7.31356C7.58548 7.13281 7.4264 7.00006 7.23985 7.00006H6.38149C6.17053 7.00006 6 7.16769 6 7.37506C6 7.58244 6.17053 7.75006 6.38149 7.75006H6.91673L7.6263 11.9366C7.62936 11.9534 7.63813 11.9673 7.64347 11.9831C7.64958 12.0029 7.65453 12.0217 7.66407 12.0397C7.67628 12.0644 7.69268 12.0854 7.70985 12.1068C7.72168 12.1214 7.73236 12.1361 7.74609 12.1488C7.76822 12.1691 7.79378 12.1833 7.81972 12.1976C7.83422 12.2054 7.84681 12.2159 7.86245 12.2219C7.9067 12.2396 7.95324 12.2501 8.00246 12.2501C8.00284 12.2501 12.1993 12.2501 12.1993 12.2501C12.4102 12.2501 12.5808 12.0824 12.5808 11.8751C12.5808 11.6677 12.4102 11.5001 12.1993 11.5001H8.32596L8.26263 11.1251H12.5808C12.7707 11.1251 12.9317 10.9878 12.9584 10.8033L13.3399 8.17831C13.3556 8.07031 13.3228 7.96119 13.2507 7.87944ZM12.5224 8.50006L12.4137 9.25007H11.0548V8.50006H12.5224ZM10.6733 8.50006V9.25007H9.52881V8.50006H10.6733ZM10.6733 9.62507V10.3751H9.52881V9.62507H10.6733ZM9.14732 8.50006V9.25007H8.00284C7.98262 9.25007 7.96431 9.25569 7.94638 9.26132L7.81743 8.50006H9.14732ZM8.00818 9.62507H9.14732V10.3751H8.13522L8.00818 9.62507ZM11.0548 10.3751V9.62507H12.3587L12.25 10.3751H11.0548Z" fill="#006EED"/>
<path d="M9.14844 13.1877C9.14844 13.4982 8.89206 13.7502 8.57617 13.7502C8.26028 13.7502 8.00391 13.4982 8.00391 13.1877C8.00391 12.8772 8.26028 12.6252 8.57617 12.6252C8.89206 12.6252 9.14844 12.8772 9.14844 13.1877Z" fill="#006EED"/>
<path d="M12.582 13.1877C12.582 13.4982 12.3256 13.7502 12.0097 13.7502C11.6939 13.7502 11.4375 13.4982 11.4375 13.1877C11.4375 12.8772 11.6939 12.6252 12.0097 12.6252C12.3256 12.6252 12.582 12.8772 12.582 13.1877Z" fill="#006EED"/>
</svg>
