<svg width="19" height="13" viewBox="0 0 19 13" fill="none" xmlns="http://www.w3.org/2000/svg">
<rect width="19" height="3" rx="1.5" fill="white"/>
<rect y="5" width="19" height="3" rx="1.5" fill="white"/>
<rect y="10" width="19" height="3" rx="1.5" fill="white"/>
</svg>
